USERS

non_local user - admin/reception
_________________________________________________
MESSAGES

Incomming messages format - JSON
fields:
{
    'task': <string>,
    'params': {
        <additional_params>: <additional_params_values>
    }
}
